{
	"InstanceCount": 1,
	"InstanceInterruptionBehavior": "stop",
	"Type": "persistent", 
	"LaunchSpecification": {
		"ImageId": "ami-0eb564bc973e980ac",
		"InstanceType": "c4.large",
		"KeyName": "MyKeyPair",
		"Placement": {
			"AvailabilityZone": "us-west-2a"
		},
		"SecurityGroupIds": [ "sg-5cd96c3b" ],
		"BlockDeviceMappings": [
			{
				"DeviceName": "/dev/xvda", 
				"Ebs": {
					"SnapshotId": "snap-0a3d2dcaabe1eb1db",
					"DeleteOnTermination": false,
					"VolumeSize": 8,
					"VolumeType": "gp2",
					"Encrypted": false
				}
			}
		]
	}
}
